%YAML 1.1
%TAG !u! tag:unity3d.com,2011:
--- !u!1045 &1
EditorBuildSettings:
  m_ObjectHideFlags: 0
  serializedVersion: 2
  m_Scenes:
  - enabled: 1
    path: Assets/Scenes/SelectScreen.unity
    guid: c49ad2772ee994835b05efe64ee880c0
  - enabled: 1
    path: Assets/Scenes/Root.unity
    guid: b91140d3a4e1a4247b29daa9fff15099
  - enabled: 0
    path: Assets/Scenes/SampleScene.unity
    guid: 2cda990e2423bbf4892e6590ba056729
  m_configObjects: {}
